<?xml version="1.0" encoding="utf-8"?>
<!-- Generator: Adobe Illustrator 19.1.0, SVG Export Plug-In . SVG Version: 6.00 Build 0)  -->
<!DOCTYPE svg PUBLIC "-//W3C//DTD SVG 1.1//EN" "http://www.w3.org/Graphics/SVG/1.1/DTD/svg11.dtd">
<svg version="1.1" id="Layer_1" xmlns="http://www.w3.org/2000/svg" xmlns:xlink="http://www.w3.org/1999/xlink" x="0px" y="0px"
	 viewBox="-285 376.8 40.2 40.2" style="enable-background:new -285 376.8 40.2 40.2;" xml:space="preserve">
<style type="text/css">
	.st0{fill:#FFD887;}
</style>
<title>Instagram_BronzeAsset 13</title>
<path class="st0" d="M-252.5,376.8h-24.7c-4.3,0-7.8,3.5-7.8,7.8v24.7c0,4.3,3.5,7.8,7.8,7.8h24.7c4.3,0,7.8-3.5,7.8-7.8v-24.7
	C-244.8,380.2-248.2,376.8-252.5,376.8z M-250.3,381.4h0.9v6.8h-6.8v-6.8H-250.3z M-270.6,392.8c2.3-3.1,6.7-3.8,9.9-1.5
	c3.1,2.3,3.8,6.7,1.5,9.9c-2.3,3.1-6.7,3.8-9.9,1.5c-1.8-1.3-2.9-3.5-2.9-5.8C-272,395.4-271.5,394-270.6,392.8z M-248.7,409.2
	c0,2.1-1.7,3.9-3.9,3.9l0,0h-24.7c-2.1,0-3.9-1.7-3.9-3.9l0,0v-16.5h6c-2.3,5.6,0.4,12,6,14.3c5.6,2.3,12-0.4,14.3-6
	c1.1-2.7,1.1-5.6,0-8.3h6L-248.7,409.2z"/>
</svg>
