<?xml version="1.0" encoding="utf-8"?>
<!-- Generator: Adobe Illustrator 21.0.0, SVG Export Plug-In . SVG Version: 6.00 Build 0)  -->
<!DOCTYPE svg PUBLIC "-//W3C//DTD SVG 1.1//EN" "http://www.w3.org/Graphics/SVG/1.1/DTD/svg11.dtd">
<svg version="1.1" id="Layer_1" xmlns="http://www.w3.org/2000/svg" xmlns:xlink="http://www.w3.org/1999/xlink" x="0px" y="0px"
	 viewBox="0 0 28.9 28.4" style="enable-background:new 0 0 28.9 28.4;" xml:space="preserve">
<style type="text/css">
	.st0{fill:#909396;}
</style>
<title>dropboxAsset 2</title>
<polygon class="st0" points="14.4,16.2 5,9.9 0,13.6 9.5,19.9 "/>
<polygon class="st0" points="0,6.3 9.5,0 14.4,3.6 5,9.9 "/>
<polygon class="st0" points="14.4,16.2 23.9,9.9 28.9,13.6 19.4,19.9 "/>
<polygon class="st0" points="19.4,22.5 14.4,18.9 9.5,22.5 5,19.6 5,22.1 14.4,28.4 23.9,22.1 23.9,19.6 "/>
<polygon class="st0" points="28.9,6.3 19.4,0 14.4,3.6 23.9,9.9 "/>
</svg>
