<?xml version="1.0" encoding="utf-8"?>
<!-- Generator: Adobe Illustrator 19.1.0, SVG Export Plug-In . SVG Version: 6.00 Build 0)  -->
<!DOCTYPE svg PUBLIC "-//W3C//DTD SVG 1.1//EN" "http://www.w3.org/Graphics/SVG/1.1/DTD/svg11.dtd">
<svg version="1.1" id="Layer_1" xmlns="http://www.w3.org/2000/svg" xmlns:xlink="http://www.w3.org/1999/xlink" x="0px" y="0px"
	 viewBox="-200 292 210 210" style="enable-background:new -200 292 210 210;" xml:space="preserve">
<style type="text/css">
	.st0{fill:#0687AC;}
	.st1{fill:none;stroke:#FFFFFF;stroke-width:6;stroke-miterlimit:10;}
	.st2{fill:none;stroke:#FFFFFF;stroke-width:7;stroke-miterlimit:10;}
</style>
<rect x="-200" y="292" class="st0" width="210" height="210"/>
<g>
	<title>SearchAsset 2</title>
	<circle class="st1" cx="-84.6" cy="386.6" r="34.6"/>
	<line class="st2" x1="-109.3" y1="411.3" x2="-140" y2="442"/>
</g>
</svg>
