<?xml version="1.0" encoding="utf-8"?>
<!-- Generator: Adobe Illustrator 19.1.0, SVG Export Plug-In . SVG Version: 6.00 Build 0)  -->
<!DOCTYPE svg PUBLIC "-//W3C//DTD SVG 1.1//EN" "http://www.w3.org/Graphics/SVG/1.1/DTD/svg11.dtd">
<svg version="1.1" id="Layer_1" xmlns="http://www.w3.org/2000/svg" xmlns:xlink="http://www.w3.org/1999/xlink" x="0px" y="0px"
	 viewBox="-293 386 24.2 22" style="enable-background:new -293 386 24.2 22;" xml:space="preserve">
<style type="text/css">
	.st0{fill:none;stroke:#B68B2C;stroke-width:2;stroke-linecap:round;stroke-linejoin:round;}
</style>
<title>UnMuteAsset 1</title>
<polygon class="st0" points="-286,393 -292,393 -292,401 -286,401 -278,407 -278,387 "/>
<path class="st0" d="M-273.3,389c4.9,3.6,4.6,12.6,0,16"/>
</svg>
